(kicad_pcb (version 20211014) (generator pcbnew)

  (general
    (thickness 1.6)
  )

  (paper "A4")
  (layers
    (0 "F.Cu" signal)
    (31 "B.Cu" signal)
    (32 "B.Adhes" user "B.Adhesive")
    (33 "F.Adhes" user "F.Adhesive")
    (34 "B.Paste" user)
    (35 "F.Paste" user)
    (36 "B.SilkS" user "B.Silkscreen")
    (37 "F.SilkS" user "F.Silkscreen")
    (38 "B.Mask" user)
    (39 "F.Mask" user)
    (40 "Dwgs.User" user "User.Drawings")
    (41 "Cmts.User" user "User.Comments")
    (42 "Eco1.User" user "User.Eco1")
    (43 "Eco2.User" user "User.Eco2")
    (44 "Edge.Cuts" user)
    (45 "Margin" user)
    (46 "B.CrtYd" user "B.Courtyard")
    (47 "F.CrtYd" user "F.Courtyard")
    (48 "B.Fab" user)
    (49 "F.Fab" user)
    (50 "User.1" user)
    (51 "User.2" user)
    (52 "User.3" user)
    (53 "User.4" user)
    (54 "User.5" user)
    (55 "User.6" user)
    (56 "User.7" user)
    (57 "User.8" user)
    (58 "User.9" user)
  )

  (setup
    (stackup
      (layer "F.SilkS" (type "Top Silk Screen"))
      (layer "F.Paste" (type "Top Solder Paste"))
      (layer "F.Mask" (type "Top Solder Mask") (thickness 0.01))
      (layer "F.Cu" (type "copper") (thickness 0.035))
      (layer "dielectric 1" (type "core") (thickness 1.51) (material "FR4") (epsilon_r 4.5) (loss_tangent 0.02))
      (layer "B.Cu" (type "copper") (thickness 0.035))
      (layer "B.Mask" (type "Bottom Solder Mask") (thickness 0.01))
      (layer "B.Paste" (type "Bottom Solder Paste"))
      (layer "B.SilkS" (type "Bottom Silk Screen"))
      (copper_finish "None")
      (dielectric_constraints no)
    )
    (pad_to_mask_clearance 0)
    (pcbplotparams
      (layerselection 0x00010fc_ffffffff)
      (disableapertmacros false)
      (usegerberextensions false)
      (usegerberattributes true)
      (usegerberadvancedattributes true)
      (creategerberjobfile true)
      (svguseinch false)
      (svgprecision 6)
      (excludeedgelayer true)
      (plotframeref false)
      (viasonmask false)
      (mode 1)
      (useauxorigin false)
      (hpglpennumber 1)
      (hpglpenspeed 20)
      (hpglpendiameter 15.000000)
      (dxfpolygonmode true)
      (dxfimperialunits true)
      (dxfusepcbnewfont true)
      (psnegative false)
      (psa4output false)
      (plotreference true)
      (plotvalue true)
      (plotinvisibletext false)
      (sketchpadsonfab false)
      (subtractmaskfromsilk false)
      (outputformat 1)
      (mirror false)
      (drillshape 0)
      (scaleselection 1)
      (outputdirectory "GERBS")
    )
  )

  (net 0 "")
  (net 1 "Net-(C1-Pad1)")
  (net 2 "Net-(D1-Pad2)")
  (net 3 "Net-(C2-Pad1)")
  (net 4 "Net-(R1-Pad2)")
  (net 5 "Net-(R3-Pad1)")
  (net 6 "unconnected-(U1-Pad5)")
  (net 7 "Net-(D2-Pad2)")
  (net 8 "Net-(R4-Pad2)")
  (net 9 "Net-(R6-Pad1)")
  (net 10 "unconnected-(U2-Pad5)")
  (net 11 "/blinky/gnd")
  (net 12 "/blinky1/gnd")
  (net 13 "/blinky/vcc")
  (net 14 "/blinky1/vcc")

  (footprint "LED_SMD:LED_1206_3216Metric" (layer "F.Cu")
    (tedit 5F68FEF1) (tstamp 00a6b129-9820-4658-b122-9e5113a8e8ee)
    (at 129.4 105.6 180)
    (descr "LED SMD 1206 (3216 Metric), square (rectangular) end terminal, IPC_7351 nominal, (Body size source: http://www.tortai-tech.com/upload/download/2011102023233369053.pdf), generated with kicad-footprint-generator")
    (tags "LED")
    (property "DK" "160-1643-1-ND")
    (property "Sheetfile" "File: blinkysub.kicad_sch")
    (property "Sheetname" "blinky")
    (path "/7680bb3d-ae5a-4279-b470-007d917dbb27/290dbf9c-8a34-4dc0-aef5-19600f18dc67")
    (attr smd)
    (fp_text reference "D1" (at 0 -2) (layer "F.SilkS")
      (effects (font (size 1 1) (thickness 0.15)))
      (tstamp 61b6db51-83d3-4185-bd68-32f3508f3fa9)
    )
    (fp_text value "3.3v BLUE" (at -0.2 1.4) (layer "F.Fab")
      (effects (font (size 1 1) (thickness 0.15)))
      (tstamp 9a69570e-8fca-4364-bfcb-b2e57bd2371d)
    )
    (fp_text user "${REFERENCE}" (at 0.2 -0.15) (layer "F.Fab")
      (effects (font (size 0.8 0.8) (thickness 0.12)))
      (tstamp 7d02a0fa-8579-4636-804c-bd1acdef0659)
    )
    (fp_line (start -2.285 -1.135) (end -2.285 1.135) (layer "F.SilkS") (width 0.12) (tstamp 0e43f6a9-fc17-47b5-8d88-af975aff811b))
    (fp_line (start -2.285 1.135) (end 1.6 1.135) (layer "F.SilkS") (width 0.12) (tstamp cfddf8d9-2ef2-454d-b858-9794c2a3b356))
    (fp_line (start 1.6 -1.135) (end -2.285 -1.135) (layer "F.SilkS") (width 0.12) (tstamp efe91741-d511-4d99-92c4-7dd949a01651))
    (fp_line (start 2.28 1.12) (end -2.28 1.12) (layer "F.CrtYd") (width 0.05) (tstamp 2768c677-d4b0-473e-84ea-9b4f20d32e2b))
    (fp_line (start -2.28 1.12) (end -2.28 -1.12) (layer "F.CrtYd") (width 0.05) (tstamp 4e8de183-1763-4df1-aa8b-a2de925124fc))
    (fp_line (start -2.28 -1.12) (end 2.28 -1.12) (layer "F.CrtYd") (width 0.05) (tstamp 6845ea48-544e-453d-bb37-f5f17491bf27))
    (fp_line (start 2.28 -1.12) (end 2.28 1.12) (layer "F.CrtYd") (width 0.05) (tstamp 8b5b18e4-f6be-4ef2-bb5c-3056a23ca4e6))
    (fp_line (start 1.6 -0.8) (end -1.2 -0.8) (layer "F.Fab") (width 0.1) (tstamp 0057b1f9-2108-4bfc-acd2-d919be6ab91b))
    (fp_line (start -1.6 0.8) (end 1.6 0.8) (layer "F.Fab") (width 0.1) (tstamp 0ddb5760-05f6-4ab4-9f54-8db5dcf60244))
    (fp_line (start -1.6 -0.4) (end -1.6 0.8) (layer "F.Fab") (width 0.1) (tstamp 614fc863-1ac0-49f1-b8e2-5aa2838a9e15))
    (fp_line (start 1.6 0.8) (end 1.6 -0.8) (layer "F.Fab") (width 0.1) (tstamp fcbdde60-47e8-48b9-b9e6-9d2e49a6fce4))
    (fp_line (start -1.2 -0.8) (end -1.6 -0.4) (layer "F.Fab") (width 0.1) (tstamp fd8e541b-377c-44e0-a101-b39c081cd367))
    (pad "1" smd roundrect (at -1.4 0 180) (size 1.25 1.75) (layers "F.Cu" "F.Paste" "F.Mask") (roundrect_rratio 0.2)
      (net 11 "/blinky/gnd") (pinfunction "K") (pintype "passive") (tstamp 8467f643-5ecb-4e9f-8516-e9825286f642))
    (pad "2" smd roundrect (at 1.4 0 180) (size 1.25 1.75) (layers "F.Cu" "F.Paste" "F.Mask") (roundrect_rratio 0.2)
      (net 2 "Net-(D1-Pad2)") (pinfunction "A") (pintype "passive") (tstamp 3f80faed-8d63-497a-942c-8e178a67a1c1))
    (model "${KICAD6_3DMODEL_DIR}/LED_SMD.3dshapes/LED_1206_3216Metric.wrl"
      (offset (xyz 0 0 0))
      (scale (xyz 1 1 1))
      (rotate (xyz 0 0 0))
    )
  )

  (footprint "Resistor_SMD:R_0805_2012Metric_Pad1.20x1.40mm_HandSolder" (layer "F.Cu")
    (tedit 5F68FEEE) (tstamp 7ee194e1-cdd0-45a6-8652-bf63ab6eba0f)
    (at 129.2 99.8)
    (descr "Resistor SMD 0805 (2012 Metric), square (rectangular) end terminal, IPC_7351 nominal with elongated pad for handsoldering. (Body size source: IPC-SM-782 page 72, https://www.pcb-3d.com/wordpress/wp-content/uploads/ipc-sm-782a_amendment_1_and_2.pdf), generated with kicad-footprint-generator")
    (tags "resistor handsolder")
    (property "DK" "2019-RK73H2ATTD3300FCT-ND")
    (property "Sheetfile" "File: blinkysub.kicad_sch")
    (property "Sheetname" "blinky")
    (path "/7680bb3d-ae5a-4279-b470-007d917dbb27/78f28fa1-9414-420e-95fa-7f7970a8d447")
    (attr smd)
    (fp_text reference "R3" (at 3 0.2) (layer "F.SilkS")
      (effects (font (size 1 1) (thickness 0.15)))
      (tstamp c0f5def1-d9a0-4836-9a53-607ca6c6c3af)
    )
    (fp_text value "330Ω" (at 0.2 -1.2) (layer "F.Fab")
      (effects (font (size 1 1) (thickness 0.15)))
      (tstamp b5ff8728-27a7-44f7-ab9d-89e37f653cb1)
    )
    (fp_text user "${REFERENCE}" (at 0 0) (layer "F.Fab")
      (effects (font (size 0.5 0.5) (thickness 0.08)))
      (tstamp 56c8f499-566d-4251-b45e-ee86f76af9b9)
    )
    (fp_line (start -0.227064 0.735) (end 0.227064 0.735) (layer "F.SilkS") (width 0.12) (tstamp 0ddc5034-45a3-464f-8d03-0bbcc3a9439d))
    (fp_line (start -0.227064 -0.735) (end 0.227064 -0.735) (layer "F.SilkS") (width 0.12) (tstamp 4d8cb774-454b-4117-8f2d-88ede18b8afc))
    (fp_line (start -1.85 -0.95) (end 1.85 -0.95) (layer "F.CrtYd") (width 0.05) (tstamp 8d59fdc5-b0b3-4549-9f3e-c4b0a64a2f55))
    (fp_line (start -1.85 0.95) (end -1.85 -0.95) (layer "F.CrtYd") (width 0.05) (tstamp af1da885-aeb7-4fef-a601-a096187fd58e))
    (fp_line (start 1.85 0.95) (end -1.85 0.95) (layer "F.CrtYd") (width 0.05) (tstamp c8a57f3d-0025-4bdd-8a58-03c0c6337ff6))
    (fp_line (start 1.85 -0.95) (end 1.85 0.95) (layer "F.CrtYd") (width 0.05) (tstamp feceeea0-fa82-4b1d-9af2-41ec45c4ded2))
    (fp_line (start -1 -0.625) (end 1 -0.625) (layer "F.Fab") (width 0.1) (tstamp 40c64f51-1379-4c94-adf9-9a608cba8faf))
    (fp_line (start -1 0.625) (end -1 -0.625) (layer "F.Fab") (width 0.1) (tstamp 491a7a94-6cb8-4eac-b7cd-48237131c8a4))
    (fp_line (start 1 0.625) (end -1 0.625) (layer "F.Fab") (width 0.1) (tstamp 727f9a8e-db81-42f8-a0be-d55bc98bc6a1))
    (fp_line (start 1 -0.625) (end 1 0.625) (layer "F.Fab") (width 0.1) (tstamp f6346737-236a-4ad3-8d90-07cb706b5b20))
    (pad "1" smd roundrect (at -1 0) (size 1.2 1.4) (layers "F.Cu" "F.Paste" "F.Mask") (roundrect_rratio 0.2083333333)
      (net 5 "Net-(R3-Pad1)") (pintype "passive") (tstamp a781eea0-7a49-4ab3-8815-a3be2f117070))
    (pad "2" smd roundrect (at 1 0) (size 1.2 1.4) (layers "F.Cu" "F.Paste" "F.Mask") (roundrect_rratio 0.2083333333)
      (net 2 "Net-(D1-Pad2)") (pintype "passive") (tstamp a9495b3b-97b6-4853-b1ac-00f98dadc122))
    (model "${KICAD6_3DMODEL_DIR}/Resistor_SMD.3dshapes/R_0805_2012Metric.wrl"
      (offset (xyz 0 0 0))
      (scale (xyz 1 1 1))
      (rotate (xyz 0 0 0))
    )
  )

  (footprint "Resistor_SMD:R_0805_2012Metric_Pad1.20x1.40mm_HandSolder" (layer "F.Cu")
    (tedit 5F68FEEE) (tstamp 8760cdaf-ede4-4f62-86f2-950fc934d497)
    (at 129.2 102.6)
    (descr "Resistor SMD 0805 (2012 Metric), square (rectangular) end terminal, IPC_7351 nominal with elongated pad for handsoldering. (Body size source: IPC-SM-782 page 72, https://www.pcb-3d.com/wordpress/wp-content/uploads/ipc-sm-782a_amendment_1_and_2.pdf), generated with kicad-footprint-generator")
    (tags "resistor handsolder")
    (property "DK" "311-750KCRCT-ND")
    (property "Sheetfile" "File: blinkysub.kicad_sch")
    (property "Sheetname" "blinky")
    (path "/7680bb3d-ae5a-4279-b470-007d917dbb27/7f3095b0-3b8d-4da1-9b5a-1946441e4946")
    (attr smd)
    (fp_text reference "R1" (at 2.9 0.2) (layer "F.SilkS")
      (effects (font (size 1 1) (thickness 0.15)))
      (tstamp ae76b816-2a17-441a-b51c-006dec8fd7b2)
    )
    (fp_text value "750kΩ" (at 0.2 -1.2) (layer "F.Fab")
      (effects (font (size 1 1) (thickness 0.15)))
      (tstamp 8e0c972d-f116-4411-a0f2-fcb91e517c58)
    )
    (fp_text user "${REFERENCE}" (at 0 0) (layer "F.Fab")
      (effects (font (size 0.5 0.5) (thickness 0.08)))
      (tstamp 6b1d9936-6b7b-4fc0-bd5b-b00c52a2c5c4)
    )
    (fp_line (start -0.227064 -0.735) (end 0.227064 -0.735) (layer "F.SilkS") (width 0.12) (tstamp 5d279211-8a58-4cb5-bc2c-6a222775c431))
    (fp_line (start -0.227064 0.735) (end 0.227064 0.735) (layer "F.SilkS") (width 0.12) (tstamp ad403d87-7eff-46b6-a516-1ac481d92d20))
    (fp_line (start 1.85 -0.95) (end 1.85 0.95) (layer "F.CrtYd") (width 0.05) (tstamp 2eff060f-e74a-4b01-9f4c-ca4c761ef1c6))
    (fp_line (start -1.85 -0.95) (end 1.85 -0.95) (layer "F.CrtYd") (width 0.05) (tstamp 4918a2f9-52ed-43b4-af47-baf0a160b6eb))
    (fp_line (start -1.85 0.95) (end -1.85 -0.95) (layer "F.CrtYd") (width 0.05) (tstamp 863bf74b-9ff3-47b4-b6ed-97b31fe4170d))
    (fp_line (start 1.85 0.95) (end -1.85 0.95) (layer "F.CrtYd") (width 0.05) (tstamp b4f13349-9402-4ed4-80b2-d9f88ffcbfae))
    (fp_line (start -1 0.625) (end -1 -0.625) (layer "F.Fab") (width 0.1) (tstamp 31331321-565f-4b18-ade8-d9c3cdb1f783))
    (fp_line (start 1 0.625) (end -1 0.625) (layer "F.Fab") (width 0.1) (tstamp 51fb1b6b-d50e-4ceb-b3c5-e03cd32554f2))
    (fp_line (start 1 -0.625) (end 1 0.625) (layer "F.Fab") (width 0.1) (tstamp 7f88758f-ddae-4233-9608-0e27d636169d))
    (fp_line (start -1 -0.625) (end 1 -0.625) (layer "F.Fab") (width 0.1) (tstamp bc0e3c5f-91fc-4697-ac7a-5abe2c463db6))
    (pad "1" smd roundrect (at -1 0) (size 1.2 1.4) (layers "F.Cu" "F.Paste" "F.Mask") (roundrect_rratio 0.2083333333)
      (net 1 "Net-(C1-Pad1)") (pintype "passive") (tstamp 0ad4826d-94c2-458e-9865-3f912846984a))
    (pad "2" smd roundrect (at 1 0) (size 1.2 1.4) (layers "F.Cu" "F.Paste" "F.Mask") (roundrect_rratio 0.2083333333)
      (net 4 "Net-(R1-Pad2)") (pintype "passive") (tstamp e3a1e9c3-12fa-40ec-9c17-a0f3611fe015))
    (model "${KICAD6_3DMODEL_DIR}/Resistor_SMD.3dshapes/R_0805_2012Metric.wrl"
      (offset (xyz 0 0 0))
      (scale (xyz 1 1 1))
      (rotate (xyz 0 0 0))
    )
  )

  (footprint "Capacitor_SMD:C_1206_3216Metric" (layer "F.Cu")
    (tedit 5F68FEEE) (tstamp 8d021977-b83b-48e8-a867-2937af20c010)
    (at 117.5 103 -90)
    (descr "Capacitor SMD 1206 (3216 Metric), square (rectangular) end terminal, IPC_7351 nominal, (Body size source: IPC-SM-782 page 76, https://www.pcb-3d.com/wordpress/wp-content/uploads/ipc-sm-782a_amendment_1_and_2.pdf), generated with kicad-footprint-generator")
    (tags "capacitor")
    (property "Sheetfile" "File: blinkysub.kicad_sch")
    (property "Sheetname" "blinky")
    (path "/7680bb3d-ae5a-4279-b470-007d917dbb27/a3612860-60e0-41eb-a11d-abf537bcd9dc")
    (attr smd)
    (fp_text reference "J1" (at 0 -1.85 90) (layer "F.SilkS") hide
      (effects (font (size 1 1) (thickness 0.15)))
      (tstamp ef89edf4-4f96-48d8-a6dc-60ace5493cc1)
    )
    (fp_text value "Battery_Pads" (at 0 1.85 90) (layer "F.Fab") hide
      (effects (font (size 1 1) (thickness 0.15)))
      (tstamp f9b1f890-bbe4-41c4-85ed-692863a71ff3)
    )
    (fp_text user "${REFERENCE}" (at 0 0 90) (layer "F.Fab")
      (effects (font (size 0.8 0.8) (thickness 0.12)))
      (tstamp 61b1f372-0834-4e77-9f6f-2a572f4e694f)
    )
    (fp_line (start -0.711252 0.91) (end 0.711252 0.91) (layer "F.SilkS") (width 0.12) (tstamp 04b6e8f9-5cbe-4dd1-be08-95bfb4bb002b))
    (fp_line (start -0.711252 -0.91) (end 0.711252 -0.91) (layer "F.SilkS") (width 0.12) (tstamp 11dc03c4-730c-4baa-94fa-b202a6712816))
    (fp_line (start -2.3 1.15) (end -2.3 -1.15) (layer "F.CrtYd") (width 0.05) (tstamp 04a71620-9ef9-4f97-a6e1-454cb59b4034))
    (fp_line (start 2.3 -1.15) (end 2.3 1.15) (layer "F.CrtYd") (width 0.05) (tstamp 15a8094e-10a0-4ca8-a55f-32658edbf880))
    (fp_line (start -2.3 -1.15) (end 2.3 -1.15) (layer "F.CrtYd") (width 0.05) (tstamp 3a1f9cb3-8412-40ff-8588-dbee43274c5d))
    (fp_line (start 2.3 1.15) (end -2.3 1.15) (layer "F.CrtYd") (width 0.05) (tstamp d8498b83-f396-4b1b-b3d8-61991dffa1f1))
    (fp_line (start -1.6 -0.8) (end 1.6 -0.8) (layer "F.Fab") (width 0.1) (tstamp 6cdaca81-1c7a-4919-a392-a3b79f1d57aa))
    (fp_line (start -1.6 0.8) (end -1.6 -0.8) (layer "F.Fab") (width 0.1) (tstamp 79119685-2c5f-4bdc-ba0d-a9bd46db310f))
    (fp_line (start 1.6 0.8) (end -1.6 0.8) (layer "F.Fab") (width 0.1) (tstamp 85c86a4f-6b17-43f5-9e63-12ee5b3cab01))
    (fp_line (start 1.6 -0.8) (end 1.6 0.8) (layer "F.Fab") (width 0.1) (tstamp e9bb8a53-a099-4ca6-9352-6fde05fbb93d))
    (pad "1" smd roundrect (at -1.475 0 270) (size 1.15 1.8) (layers "F.Cu" "F.Paste" "F.Mask") (roundrect_rratio 0.2173913043)
      (net 13 "/blinky/vcc") (pinfunction "VBAT") (pintype "power_out") (tstamp 3bf6d1fe-f4de-4dd8-916a-cd2bc7ce7cb3))
    (pad "2" smd roundrect (at 1.475 0 270) (size 1.15 1.8) (layers "F.Cu" "F.Paste" "F.Mask") (roundrect_rratio 0.2173913043)
      (net 11 "/blinky/gnd") (pinfunction "GND") (pintype "power_out") (tstamp 45fc8038-b618-4695-b66b-9fc22216f830))
  )

  (footprint "Capacitor_SMD:C_0805_2012Metric_Pad1.18x1.45mm_HandSolder" (layer "F.Cu")
    (tedit 5F68FEEF) (tstamp c3f56a28-3465-411c-921d-a6aa7418b0aa)
    (at 123.2625 106 180)
    (descr "Capacitor SMD 0805 (2012 Metric), square (rectangular) end terminal, IPC_7351 nominal with elongated pad for handsoldering. (Body size source: IPC-SM-782 page 76, https://www.pcb-3d.com/wordpress/wp-content/uploads/ipc-sm-782a_amendment_1_and_2.pdf, https://docs.google.com/spreadsheets/d/1BsfQQcO9C6DZCsRaXUlFlo91Tg2WpOkGARC1WS5S8t0/edit?usp=sharing), generated with kicad-footprint-generator")
    (tags "capacitor handsolder")
    (property "DK" "1276-1066-1-ND")
    (property "Sheetfile" "File: blinkysub.kicad_sch")
    (property "Sheetname" "blinky")
    (path "/7680bb3d-ae5a-4279-b470-007d917dbb27/f2700a18-628d-4fbb-8c86-3d591182004b")
    (attr smd)
    (fp_text reference "C1" (at 0 -1.68) (layer "F.SilkS")
      (effects (font (size 1 1) (thickness 0.15)))
      (tstamp 55e5febb-b3df-4ac6-8652-b69a6858e417)
    )
    (fp_text value "1uF" (at -0.1375 1.6) (layer "F.Fab")
      (effects (font (size 1 1) (thickness 0.15)))
      (tstamp 94e7da33-8039-4e5c-9409-65c9df7bcc88)
    )
    (fp_text user "${REFERENCE}" (at 0 0) (layer "F.Fab")
      (effects (font (size 0.5 0.5) (thickness 0.08)))
      (tstamp 9ec91b3c-a7a3-4d04-ad92-3c643967af2b)
    )
    (fp_line (start -0.261252 0.735) (end 0.261252 0.735) (layer "F.SilkS") (width 0.12) (tstamp 2bee1ea2-2aba-4607-b441-d25bbfeb4098))
    (fp_line (start -0.261252 -0.735) (end 0.261252 -0.735) (layer "F.SilkS") (width 0.12) (tstamp 30054a2c-3038-4f5d-b0ad-3716856f1c56))
    (fp_line (start -1.88 0.98) (end -1.88 -0.98) (layer "F.CrtYd") (width 0.05) (tstamp 215cdee0-18c4-4506-8b74-73a312be9d6f))
    (fp_line (start -1.88 -0.98) (end 1.88 -0.98) (layer "F.CrtYd") (width 0.05) (tstamp 4a747975-b4be-45b4-bb1f-bf69718056e2))
    (fp_line (start 1.88 0.98) (end -1.88 0.98) (layer "F.CrtYd") (width 0.05) (tstamp bb4dc10f-539b-4883-a462-a021a003c453))
    (fp_line (start 1.88 -0.98) (end 1.88 0.98) (layer "F.CrtYd") (width 0.05) (tstamp f9f99f3d-f5ba-4cdd-b489-38e0d13cf571))
    (fp_line (start -1 0.625) (end -1 -0.625) (layer "F.Fab") (width 0.1) (tstamp 478eade0-2980-4bbd-ad63-f6d6cf512e95))
    (fp_line (start -1 -0.625) (end 1 -0.625) (layer "F.Fab") (width 0.1) (tstamp 96cb0ba5-2fb1-4a79-a4c2-b66d1e0201d4))
    (fp_line (start 1 0.625) (end -1 0.625) (layer "F.Fab") (width 0.1) (tstamp c5926295-8671-4935-87d6-2dd5c05f1e26))
    (fp_line (start 1 -0.625) (end 1 0.625) (layer "F.Fab") (width 0.1) (tstamp ecb1d4eb-eb9e-4eae-929a-816af9f14a7f))
    (pad "1" smd roundrect (at -1.0375 0 180) (size 1.175 1.45) (layers "F.Cu" "F.Paste" "F.Mask") (roundrect_rratio 0.2127659574)
      (net 1 "Net-(C1-Pad1)") (pintype "passive") (tstamp 2b711cdb-9b02-41e6-bc30-5b6522e35599))
    (pad "2" smd roundrect (at 1.0375 0 180) (size 1.175 1.45) (layers "F.Cu" "F.Paste" "F.Mask") (roundrect_rratio 0.2127659574)
      (net 11 "/blinky/gnd") (pintype "passive") (tstamp 900c6bc8-9955-4a86-a4d6-1b8416bac174))
    (model "${KICAD6_3DMODEL_DIR}/Capacitor_SMD.3dshapes/C_0805_2012Metric.wrl"
      (offset (xyz 0 0 0))
      (scale (xyz 1 1 1))
      (rotate (xyz 0 0 0))
    )
  )

  (footprint "Resistor_SMD:R_0805_2012Metric_Pad1.20x1.40mm_HandSolder" (layer "F.Cu")
    (tedit 5F68FEEE) (tstamp db7a521f-411d-4cb3-9e30-a33af23a958e)
    (at 129.2 97.25 180)
    (descr "Resistor SMD 0805 (2012 Metric), square (rectangular) end terminal, IPC_7351 nominal with elongated pad for handsoldering. (Body size source: IPC-SM-782 page 72, https://www.pcb-3d.com/wordpress/wp-content/uploads/ipc-sm-782a_amendment_1_and_2.pdf), generated with kicad-footprint-generator")
    (tags "resistor handsolder")
    (property "DK" "2019-RK73H2ATTD1503FCT-ND")
    (property "Sheetfile" "File: blinkysub.kicad_sch")
    (property "Sheetname" "blinky")
    (path "/7680bb3d-ae5a-4279-b470-007d917dbb27/b10bc6ff-bf5b-474f-8df0-edc2cd5fc7d7")
    (attr smd)
    (fp_text reference "R2" (at -3.2 -0.1) (layer "F.SilkS")
      (effects (font (size 1 1) (thickness 0.15)))
      (tstamp b40d7728-6e6a-44d7-a3fe-a0d1d4e58f07)
    )
    (fp_text value "150kΩ" (at -0.3 1.35) (layer "F.Fab")
      (effects (font (size 1 1) (thickness 0.15)))
      (tstamp 252e26fb-d537-427f-a00f-a781d2bc775e)
    )
    (fp_text user "${REFERENCE}" (at 0 0) (layer "F.Fab")
      (effects (font (size 0.5 0.5) (thickness 0.08)))
      (tstamp 65be8087-73d9-4cdc-96ab-41234e0ebaf5)
    )
    (fp_line (start -0.227064 0.735) (end 0.227064 0.735) (layer "F.SilkS") (width 0.12) (tstamp 51a48493-37a0-4609-9410-47bf2b98e251))
    (fp_line (start -0.227064 -0.735) (end 0.227064 -0.735) (layer "F.SilkS") (width 0.12) (tstamp 6c618fe6-4215-4c53-9402-69c0898d3ec5))
    (fp_line (start -1.85 0.95) (end -1.85 -0.95) (layer "F.CrtYd") (width 0.05) (tstamp 0988a3d7-2c7a-4c68-9042-fbd37d5fce23))
    (fp_line (start 1.85 -0.95) (end 1.85 0.95) (layer "F.CrtYd") (width 0.05) (tstamp 68c65ac5-3996-44fb-8af0-e9a165a656a0))
    (fp_line (start -1.85 -0.95) (end 1.85 -0.95) (layer "F.CrtYd") (width 0.05) (tstamp 9293fdae-24a1-400a-bf96-ac3be749d1ab))
    (fp_line (start 1.85 0.95) (end -1.85 0.95) (layer "F.CrtYd") (width 0.05) (tstamp ea69a372-1482-4908-ac2a-ab56c2faa1fe))
    (fp_line (start 1 0.625) (end -1 0.625) (layer "F.Fab") (width 0.1) (tstamp 63ac57cb-6ea0-48dd-bbc7-d7bf6400006b))
    (fp_line (start -1 -0.625) (end 1 -0.625) (layer "F.Fab") (width 0.1) (tstamp 972de424-7eae-40bd-afc6-97b332edd222))
    (fp_line (start -1 0.625) (end -1 -0.625) (layer "F.Fab") (width 0.1) (tstamp ae416a19-a70d-493c-beff-6235dc44a2b6))
    (fp_line (start 1 -0.625) (end 1 0.625) (layer "F.Fab") (width 0.1) (tstamp f49998bd-feb3-4568-acde-fb48c9cfc8f7))
    (pad "1" smd roundrect (at -1 0 180) (size 1.2 1.4) (layers "F.Cu" "F.Paste" "F.Mask") (roundrect_rratio 0.2083333333)
      (net 4 "Net-(R1-Pad2)") (pintype "passive") (tstamp 96b6e581-0640-438f-a1fd-826cb2607ae2))
    (pad "2" smd roundrect (at 1 0 180) (size 1.2 1.4) (layers "F.Cu" "F.Paste" "F.Mask") (roundrect_rratio 0.2083333333)
      (net 13 "/blinky/vcc") (pintype "passive") (tstamp 0554ab19-55d0-427e-83ad-27301d642202))
    (model "${KICAD6_3DMODEL_DIR}/Resistor_SMD.3dshapes/R_0805_2012Metric.wrl"
      (offset (xyz 0 0 0))
      (scale (xyz 1 1 1))
      (rotate (xyz 0 0 0))
    )
  )

  (footprint "digikey-footprints:SOIC-8_W3.9mm" (layer "F.Cu")
    (tedit 5D28A544) (tstamp e073a858-9259-40a9-b280-0913a9eca542)
    (at 124 100)
    (property "Category" "Integrated Circuits (ICs)")
    (property "DK" "296-6501-1-ND")
    (property "DK_Datasheet_Link" "http://www.ti.com/general/docs/suppproductinfo.tsp?distId=10&gotoUrl=http%3A%2F%2Fwww.ti.com%2Flit%2Fgpn%2Fne555")
    (property "DK_Detail_Page" "/product-detail/en/texas-instruments/NE555DR/296-6501-1-ND/372490")
    (property "Description" "IC OSC SGL TIMER 100KHZ 8-SOIC")
    (property "Digi-Key_PN" "296-6501-1-ND")
    (property "Family" "Clock/Timing - Programmable Timers and Oscillators")
    (property "MPN" "NE555DR")
    (property "Manufacturer" "Texas Instruments")
    (property "Sheetfile" "File: blinkysub.kicad_sch")
    (property "Sheetname" "blinky")
    (property "Status" "Active")
    (path "/7680bb3d-ae5a-4279-b470-007d917dbb27/7ac9e3f6-f08a-48fb-b4a0-a84e7ef860c5")
    (attr smd)
    (fp_text reference "U1" (at -3.604 -3) (layer "F.SilkS")
      (effects (font (size 1 1) (thickness 0.15)))
      (tstamp 6b3698d5-8ea0-488d-a985-c3902ee8fea2)
    )
    (fp_text value "NE555" (at 0 -2.8) (layer "F.Fab")
      (effects (font (size 1 1) (thickness 0.15)))
      (tstamp 5050171d-de33-4bf0-98bb-d417b23e7d87)
    )
    (fp_text user "${REFERENCE}" (at 0 0.2) (layer "F.Fab")
      (effects (font (size 1 1) (thickness 0.15)))
      (tstamp 0e06756f-d287-44a5-85be-26747416cd8b)
    )
    (fp_line (start -2.6 -2.1) (end -2.6 -1.8) (layer "F.SilkS") (width 0.1) (tstamp 4b8e0f8d-44f3-4eed-a139-292077e2a23d))
    (fp_line (start -2.3 -2.1) (end -2.6 -2.1) (layer "F.SilkS") (width 0.1) (tstamp 6eff42c5-0a8f-4bf7-a5e4-43ef7ca35dbc))
    (fp_line (start 2.3 2.1) (end 2.6 2.1) (layer "F.SilkS") (width 0.1) (tstamp 80082687-fd53-4a3d-a7a4-d7ba20436f57))
    (fp_line (start -2.3 1.9) (end -2.3 2.7) (layer "F.SilkS") (width 0.1) (tstamp a6652c7e-06cd-4ab8-8828-906c64625ce1))
    (fp_line (start 2.6 -2.1) (end 2.6 -1.8) (layer "F.SilkS") (width 0.1) (tstamp b294579c-1dcd-4e11-8eac-ac651b263376))
    (fp_line (start 2.3 -2.1) (end 2.6 -2.1) (layer "F.SilkS") (width 0.1) (tstamp c274f3bf-b2f2-4663-9139-e38652dea502))
    (fp_line (start 2.6 2.1) (end 2.6 1.8) (layer "F.SilkS") (width 0.1) (tstamp d8694f6c-e279-484b-83a1-ff13c7f77a6d))
    (fp_line (start -2.6 1.6) (end -2.3 1.9) (layer "F.SilkS") (width 0.1) (tstamp ea3e845b-54b2-4e99-afe9-a5af327f5955))
    (fp_line (start -2.6 1.2) (end -2.6 1.6) (layer "F.SilkS") (width 0.1) (tstamp f85d5af7-31e6-4ea3-9b94-bed2afe28bf3))
    (fp_line (start -2.7 -3.7) (end -2.7 3.7) (layer "F.CrtYd") (width 0.05) (tstamp 5331f4d1-3113-4526-ab40-393e8b3d2edd))
    (fp_line (start -2.7 -3.7) (end 2.7 -3.7) (layer "F.CrtYd") (width 0.05) (tstamp 81ea246d-898b-4655-8ab6-aafd3dd24d6e))
    (fp_line (start -2.7 3.7) (end 2.7 3.7) (layer "F.CrtYd") (width 0.05) (tstamp 8b2b03de-007b-4af8-b1c8-411c136512fc))
    (fp_line (start 2.7 -3.7) (end 2.7 3.7) (layer "F.CrtYd") (width 0.05) (tstamp d4a43a3c-bafa-41f5-9125-bd89610e4fa3))
    (fp_line (start -2.45 1.55) (end -2.45 -1.95) (layer "F.Fab") (width 0.1) (tstamp 09e173ce-14c1-4085-a645-213529b3d643))
    (fp_line (start -2.45 -1.95) (end 2.45 -1.95) (layer "F.Fab") (width 0.1) (tstamp c481c700-8ae4-4e60-a8c1-31bd230c8ddd))
    (fp_line (start -2.45 1.55) (end -2.05 1.95) (layer "F.Fab") (width 0.1) (tstamp c78172cd-5593-4cd6-b2c1-bec9091b9717))
    (fp_line (start 2.45 -1.95) (end 2.45 1.95) (layer "F.Fab") (width 0.1) (tstamp cab727af-1262-486a-894b-8c60999a0884))
    (fp_line (start -2.05 1.95) (end 2.45 1.95) (layer "F.Fab") (width 0.1) (tstamp fe69475d-e97f-465d-8e79-b59bd273302e))
    (pad "1" smd rect (at -1.905 2.45) (size 0.6 2) (layers "F.Cu" "F.Paste" "F.Mask")
      (net 11 "/blinky/gnd") (pinfunction "GND") (pintype "power_in") (tstamp 324e04ed-43f4-4d6b-88bc-0263f6e596ce))
    (pad "2" smd rect (at -0.635 2.45) (size 0.6 2) (layers "F.Cu" "F.Paste" "F.Mask")
      (net 1 "Net-(C1-Pad1)") (pinfunction "TRIG") (pintype "input") (tstamp 8c06a4eb-3618-47bb-92fc-2375845536be))
    (pad "3" smd rect (at 0.635 2.45) (size 0.6 2) (layers "F.Cu" "F.Paste" "F.Mask")
      (net 5 "Net-(R3-Pad1)") (pinfunction "OUT") (pintype "output") (tstamp 34d435c7-74d5-466f-b86b-d57da60841b3))
    (pad "4" smd rect (at 1.905 2.45) (size 0.6 2) (layers "F.Cu" "F.Paste" "F.Mask")
      (net 13 "/blinky/vcc") (pinfunction "RESET") (pintype "input") (tstamp 3b65e9d0-5789-45ee-92c4-cff137a91438))
    (pad "5" smd rect (at 1.905 -2.45) (size 0.6 2) (layers "F.Cu" "F.Paste" "F.Mask")
      (net 6 "unconnected-(U1-Pad5)") (pinfunction "CONT") (pintype "bidirectional+no_connect") (tstamp 40a2bcb2-81ac-403b-9911-d3678ba35529))
    (pad "6" smd rect (at 0.635 -2.45) (size 0.6 2) (layers "F.Cu" "F.Paste" "F.Mask")
      (net 1 "Net-(C1-Pad1)") (pinfunction "THRES") (pintype "input") (tstamp a9289b2f-5a77-46c4-9923-ea111000b88e))
    (pad "7" smd rect (at -0.635 -2.45) (size 0.6 2) (layers "F.Cu" "F.Paste" "F.Mask")
      (net 4 "Net-(R1-Pad2)") (pinfunction "DISCH") (pintype "output") (tstamp 2cc470b8-213f-4194-9014-ebb481eca1f2))
    (pad "8" smd rect (at -1.905 -2.45) (size 0.6 2) (layers "F.Cu" "F.Paste" "F.Mask")
      (net 13 "/blinky/vcc") (pinfunction "VCC") (pintype "power_in") (tstamp 15bc4b31-1298-40b3-a759-9b3e6e1a5523))
    (model "${KICAD6_3DMODEL_DIR}/Package_SO.3dshapes/PowerIntegrations_SO-8.step"
      (offset (xyz 0 0 0))
      (scale (xyz 1 1 1))
      (rotate (xyz 0 0 -90))
    )
  )

  (footprint "Capacitor_SMD:C_1206_3216Metric" (layer "B.Cu")
    (tedit 5F68FEEE) (tstamp 0fd479fb-0637-43eb-b736-680ab261261e)
    (at 117.6 101.4 90)
    (descr "Capacitor SMD 1206 (3216 Metric), square (rectangular) end terminal, IPC_7351 nominal, (Body size source: IPC-SM-782 page 76, https://www.pcb-3d.com/wordpress/wp-content/uploads/ipc-sm-782a_amendment_1_and_2.pdf), generated with kicad-footprint-generator")
    (tags "capacitor")
    (property "Sheetfile" "File: blinkysub.kicad_sch")
    (property "Sheetname" "blinky1")
    (path "/ac245ba7-1670-4296-8389-e8db0649f797/a3612860-60e0-41eb-a11d-abf537bcd9dc")
    (attr smd)
    (fp_text reference "J2" (at 0 1.85 -90) (layer "B.SilkS") hide
      (effects (font (size 1 1) (thickness 0.15)) (justify mirror))
      (tstamp f7af4337-27e6-4a36-ab43-d645c4fafde6)
    )
    (fp_text value "Battery_Pads" (at 0 -1.85 -90) (layer "B.Fab") hide
      (effects (font (size 1 1) (thickness 0.15)) (justify mirror))
      (tstamp 4a0c516a-d60a-4dfc-bfd2-95e6468c9d6e)
    )
    (fp_text user "${REFERENCE}" (at 0 0 -90) (layer "B.Fab")
      (effects (font (size 0.8 0.8) (thickness 0.12)) (justify mirror))
      (tstamp 5a3c4a98-a269-433a-a646-f5979349250d)
    )
    (fp_line (start -0.711252 -0.91) (end 0.711252 -0.91) (layer "B.SilkS") (width 0.12) (tstamp f81c6025-4ca9-49ad-beef-f1575dd40c16))
    (fp_line (start -0.711252 0.91) (end 0.711252 0.91) (layer "B.SilkS") (width 0.12) (tstamp f8ac851b-1964-400b-a494-35dc02c99902))
    (fp_line (start -2.3 -1.15) (end -2.3 1.15) (layer "B.CrtYd") (width 0.05) (tstamp 3750bf4b-f463-4d45-9589-190c24b27dbb))
    (fp_line (start 2.3 -1.15) (end -2.3 -1.15) (layer "B.CrtYd") (width 0.05) (tstamp 4e719573-3a21-4b8d-926c-7130c9fde2c7))
    (fp_line (start 2.3 1.15) (end 2.3 -1.15) (layer "B.CrtYd") (width 0.05) (tstamp 94854296-01e7-43c1-830d-a09b2994d6f1))
    (fp_line (start -2.3 1.15) (end 2.3 1.15) (layer "B.CrtYd") (width 0.05) (tstamp ace528f7-7321-4ba0-95b3-9c92bee55c3f))
    (fp_line (start -1.6 -0.8) (end -1.6 0.8) (layer "B.Fab") (width 0.1) (tstamp 0717dd03-b2e5-4781-8c70-82fd0a759b01))
    (fp_line (start -1.6 0.8) (end 1.6 0.8) (layer "B.Fab") (width 0.1) (tstamp a1aa9739-8c28-4573-8d87-e7fba070850a))
    (fp_line (start 1.6 0.8) (end 1.6 -0.8) (layer "B.Fab") (width 0.1) (tstamp b6fca048-68e5-4cc3-b5c1-6e3ba7505ce0))
    (fp_line (start 1.6 -0.8) (end -1.6 -0.8) (layer "B.Fab") (width 0.1) (tstamp c3587160-87cb-4e6b-a6b8-535ce5076b19))
    (pad "1" smd roundrect (at -1.475 0 90) (size 1.15 1.8) (layers "B.Cu" "B.Paste" "B.Mask") (roundrect_rratio 0.217391)
      (net 14 "/blinky1/vcc") (pinfunction "VBAT") (pintype "power_out") (tstamp 74145357-9301-47f4-832e-64f1f6a736e8))
    (pad "2" smd roundrect (at 1.475 0 90) (size 1.15 1.8) (layers "B.Cu" "B.Paste" "B.Mask") (roundrect_rratio 0.217391)
      (net 12 "/blinky1/gnd") (pinfunction "GND") (pintype "power_out") (tstamp 2b622e75-ba27-479d-901c-8da1725a5912))
    (model "${KICAD6_3DMODEL_DIR}/Capacitor_SMD.3dshapes/C_1206_3216Metric.wrl" hide
      (offset (xyz 0 0 0))
      (scale (xyz 1 1 1))
      (rotate (xyz 0 0 0))
    )
  )

  (footprint "LED_SMD:LED_1206_3216Metric" (layer "B.Cu")
    (tedit 5F68FEF1) (tstamp 88bee5c4-50f4-4f20-9143-5fcc74745631)
    (at 129.395 97.55 180)
    (descr "LED SMD 1206 (3216 Metric), square (rectangular) end terminal, IPC_7351 nominal, (Body size source: http://www.tortai-tech.com/upload/download/2011102023233369053.pdf), generated with kicad-footprint-generator")
    (tags "LED")
    (property "DK" "160-1643-1-ND")
    (property "Sheetfile" "File: blinkysub.kicad_sch")
    (property "Sheetname" "blinky1")
    (path "/ac245ba7-1670-4296-8389-e8db0649f797/290dbf9c-8a34-4dc0-aef5-19600f18dc67")
    (attr smd)
    (fp_text reference "D2" (at -3.305 -0.05) (layer "B.SilkS")
      (effects (font (size 1 1) (thickness 0.15)) (justify mirror))
      (tstamp 7e855cd5-9a39-450b-a737-7f06b8351ef7)
    )
    (fp_text value "3.3v BLUE" (at -0.000001 0.2) (layer "B.Fab")
      (effects (font (size 1 1) (thickness 0.15)) (justify mirror))
      (tstamp 79446ed8-ce18-403a-a853-be1a97a49c51)
    )
    (fp_text user "${REFERENCE}" (at 0 0) (layer "B.Fab")
      (effects (font (size 0.8 0.8) (thickness 0.12)) (justify mirror))
      (tstamp 1502cc9c-c306-4077-a383-23bc19b561ab)
    )
    (fp_line (start 1.6 1.135) (end -2.285 1.135) (layer "B.SilkS") (width 0.12) (tstamp 124eea9f-acb8-43b1-b18d-dbded5323a71))
    (fp_line (start -2.285 1.135) (end -2.285 -1.135) (layer "B.SilkS") (width 0.12) (tstamp 2d932f23-863c-4468-aa0f-52db2ffe1fdc))
    (fp_line (start -2.285 -1.135) (end 1.6 -1.135) (layer "B.SilkS") (width 0.12) (tstamp 79ce3848-2bf1-4d14-ad08-12d06e3b37d8))
    (fp_line (start 2.28 -1.12) (end -2.28 -1.12) (layer "B.CrtYd") (width 0.05) (tstamp 0c520f68-960c-4300-a21c-4f689847330b))
    (fp_line (start -2.28 -1.12) (end -2.28 1.12) (layer "B.CrtYd") (width 0.05) (tstamp 7dcb0eca-ff2a-4a23-b5c9-92020da76905))
    (fp_line (start -2.28 1.12) (end 2.28 1.12) (layer "B.CrtYd") (width 0.05) (tstamp 834c74a0-765d-45a8-9c8e-f0071fac6faa))
    (fp_line (start 2.28 1.12) (end 2.28 -1.12) (layer "B.CrtYd") (width 0.05) (tstamp faf6abaf-ec95-40c7-8a62-da25bc5b53b0))
    (fp_line (start -1.6 -0.8) (end 1.6 -0.8) (layer "B.Fab") (width 0.1) (tstamp 32de9b4d-015c-4871-bb8b-fcb21fb16bc2))
    (fp_line (start 1.6 -0.8) (end 1.6 0.8) (layer "B.Fab") (width 0.1) (tstamp 8ce8cc55-06d8-468f-b11e-c4923e405668))
    (fp_line (start -1.2 0.8) (end -1.6 0.4) (layer "B.Fab") (width 0.1) (tstamp cc5f6502-f30c-4b3e-9152-cfb1d6142f13))
    (fp_line (start -1.6 0.4) (end -1.6 -0.8) (layer "B.Fab") (width 0.1) (tstamp de34382c-feb2-4bef-ae03-ac15b02e7134))
    (fp_line (start 1.6 0.8) (end -1.2 0.8) (layer "B.Fab") (width 0.1) (tstamp e8b010a4-fa7a-4708-84da-bc5acfb137de))
    (pad "1" smd roundrect (at -1.4 0 180) (size 1.25 1.75) (layers "B.Cu" "B.Paste" "B.Mask") (roundrect_rratio 0.2)
      (net 12 "/blinky1/gnd") (pinfunction "K") (pintype "passive") (tstamp 5ccc73bf-8e11-4f69-9a86-aec44802357b))
    (pad "2" smd roundrect (at 1.4 0 180) (size 1.25 1.75) (layers "B.Cu" "B.Paste" "B.Mask") (roundrect_rratio 0.2)
      (net 7 "Net-(D2-Pad2)") (pinfunction "A") (pintype "passive") (tstamp 2bbc9efc-646a-441d-b3e1-2f26cee27b57))
    (model "${KICAD6_3DMODEL_DIR}/LED_SMD.3dshapes/LED_1206_3216Metric.wrl"
      (offset (xyz 0 0 0))
      (scale (xyz 1 1 1))
      (rotate (xyz 0 0 0))
    )
  )

  (footprint "Resistor_SMD:R_0805_2012Metric_Pad1.20x1.40mm_HandSolder" (layer "B.Cu")
    (tedit 5F68FEEE) (tstamp 902a26dd-d3d2-466d-9f67-5861f97930d2)
    (at 129.195 105.9 180)
    (descr "Resistor SMD 0805 (2012 Metric), square (rectangular) end terminal, IPC_7351 nominal with elongated pad for handsoldering. (Body size source: IPC-SM-782 page 72, https://www.pcb-3d.com/wordpress/wp-content/uploads/ipc-sm-782a_amendment_1_and_2.pdf), generated with kicad-footprint-generator")
    (tags "resistor handsolder")
    (property "DK" "2019-RK73H2ATTD1503FCT-ND")
    (property "Sheetfile" "File: blinkysub.kicad_sch")
    (property "Sheetname" "blinky1")
    (path "/ac245ba7-1670-4296-8389-e8db0649f797/b10bc6ff-bf5b-474f-8df0-edc2cd5fc7d7")
    (attr smd)
    (fp_text reference "R5" (at -3.2 0.099999) (layer "B.SilkS")
      (effects (font (size 1 1) (thickness 0.15)) (justify mirror))
      (tstamp 31ca4d54-bae2-4f9b-b481-0d7618bab6f5)
    )
    (fp_text value "150kΩ" (at -0.6 0) (layer "B.Fab")
      (effects (font (size 1 1) (thickness 0.15)) (justify mirror))
      (tstamp fac28ddd-425e-484a-9732-138b13737c9d)
    )
    (fp_text user "${REFERENCE}" (at 0 0) (layer "B.Fab")
      (effects (font (size 0.5 0.5) (thickness 0.08)) (justify mirror))
      (tstamp b555e608-2212-40a5-97b0-0e7fb6eec687)
    )
    (fp_line (start -0.227064 -0.735) (end 0.227064 -0.735) (layer "B.SilkS") (width 0.12) (tstamp 4f6e7da0-bb34-4654-a940-db022e06366f))
    (fp_line (start -0.227064 0.735) (end 0.227064 0.735) (layer "B.SilkS") (width 0.12) (tstamp 67c8afab-a13c-4cc5-bcda-6028ad80e55c))
    (fp_line (start 1.85 -0.95) (end -1.85 -0.95) (layer "B.CrtYd") (width 0.05) (tstamp 4ea08af7-e369-4866-b28e-fc9c2080cf31))
    (fp_line (start 1.85 0.95) (end 1.85 -0.95) (layer "B.CrtYd") (width 0.05) (tstamp 797691c0-ae2a-4a87-8478-751eb0141cde))
    (fp_line (start -1.85 0.95) (end 1.85 0.95) (layer "B.CrtYd") (width 0.05) (tstamp 7f7afa0e-91af-4882-9cd9-7bee068e3ae2))
    (fp_line (start -1.85 -0.95) (end -1.85 0.95) (layer "B.CrtYd") (width 0.05) (tstamp a1cd0a4e-405a-457c-98a2-ac2f9ffa2a99))
    (fp_line (start 1 0.625) (end 1 -0.625) (layer "B.Fab") (width 0.1) (tstamp 156172f7-31ea-4342-93bb-d34fdb18fb53))
    (fp_line (start -1 -0.625) (end -1 0.625) (layer "B.Fab") (width 0.1) (tstamp 7a99c173-0e7c-4f60-a44c-0097ff62b84c))
    (fp_line (start 1 -0.625) (end -1 -0.625) (layer "B.Fab") (width 0.1) (tstamp bc2ad0f1-7596-4968-867f-93cb41b13e03))
    (fp_line (start -1 0.625) (end 1 0.625) (layer "B.Fab") (width 0.1) (tstamp f59ff027-1bde-4de7-9969-dbcf3eba0c9c))
    (pad "1" smd roundrect (at -1 0 180) (size 1.2 1.4) (layers "B.Cu" "B.Paste" "B.Mask") (roundrect_rratio 0.208333)
      (net 8 "Net-(R4-Pad2)") (pintype "passive") (tstamp 037b5d1b-c778-4588-94d6-e50cfcf32a6b))
    (pad "2" smd roundrect (at 1 0 180) (size 1.2 1.4) (layers "B.Cu" "B.Paste" "B.Mask") (roundrect_rratio 0.208333)
      (net 14 "/blinky1/vcc") (pintype "passive") (tstamp 4c7883aa-e91d-4721-aee9-3bd2b4c0f2e1))
    (model "${KICAD6_3DMODEL_DIR}/Resistor_SMD.3dshapes/R_0805_2012Metric.wrl"
      (offset (xyz 0 0 0))
      (scale (xyz 1 1 1))
      (rotate (xyz 0 0 0))
    )
  )

  (footprint "Resistor_SMD:R_0805_2012Metric_Pad1.20x1.40mm_HandSolder" (layer "B.Cu")
    (tedit 5F68FEEE) (tstamp a9f15bd0-778c-4356-9c2f-84265e9b847d)
    (at 129.195 100.55)
    (descr "Resistor SMD 0805 (2012 Metric), square (rectangular) end terminal, IPC_7351 nominal with elongated pad for handsoldering. (Body size source: IPC-SM-782 page 72, https://www.pcb-3d.com/wordpress/wp-content/uploads/ipc-sm-782a_amendment_1_and_2.pdf), generated with kicad-footprint-generator")
    (tags "resistor handsolder")
    (property "DK" "311-750KCRCT-ND")
    (property "Sheetfile" "File: blinkysub.kicad_sch")
    (property "Sheetname" "blinky1")
    (path "/ac245ba7-1670-4296-8389-e8db0649f797/7f3095b0-3b8d-4da1-9b5a-1946441e4946")
    (attr smd)
    (fp_text reference "R4" (at 2.9 -0.199999) (layer "B.SilkS")
      (effects (font (size 1 1) (thickness 0.15)) (justify mirror))
      (tstamp 8908e00e-2221-461b-ac7c-b9c0e59d2700)
    )
    (fp_text value "750kΩ" (at 0.4 0) (layer "B.Fab")
      (effects (font (size 1 1) (thickness 0.15)) (justify mirror))
      (tstamp e2c5ce2f-8c3b-49ce-9308-1489cd023b12)
    )
    (fp_text user "${REFERENCE}" (at 0 0) (layer "B.Fab")
      (effects (font (size 0.5 0.5) (thickness 0.08)) (justify mirror))
      (tstamp 2eb40610-4489-471a-89a9-79d3549148e6)
    )
    (fp_line (start -0.227064 -0.735) (end 0.227064 -0.735) (layer "B.SilkS") (width 0.12) (tstamp b04230f0-3819-4e8c-ac51-96521878a3fa))
    (fp_line (start -0.227064 0.735) (end 0.227064 0.735) (layer "B.SilkS") (width 0.12) (tstamp c1c1eab2-33f9-4b5f-af61-842fea6b64f0))
    (fp_line (start 1.85 0.95) (end 1.85 -0.95) (layer "B.CrtYd") (width 0.05) (tstamp 8a2423b0-555b-4375-b630-754800cfbfce))
    (fp_line (start 1.85 -0.95) (end -1.85 -0.95) (layer "B.CrtYd") (width 0.05) (tstamp a3b9eeec-2c40-4b0e-a24a-62ef466eab61))
    (fp_line (start -1.85 -0.95) (end -1.85 0.95) (layer "B.CrtYd") (width 0.05) (tstamp be39998b-6dea-433e-a230-73727199c29b))
    (fp_line (start -1.85 0.95) (end 1.85 0.95) (layer "B.CrtYd") (width 0.05) (tstamp dba37869-a32d-4d3f-bd6c-fbb9a1dce4cd))
    (fp_line (start -1 -0.625) (end -1 0.625) (layer "B.Fab") (width 0.1) (tstamp 1977e93a-2090-43d7-ad60-b8a9ce1ef90b))
    (fp_line (start 1 -0.625) (end -1 -0.625) (layer "B.Fab") (width 0.1) (tstamp 450163a1-437e-44be-a357-1f83d48a1602))
    (fp_line (start 1 0.625) (end 1 -0.625) (layer "B.Fab") (width 0.1) (tstamp 994e7d29-03a0-4434-a453-1c47ec06f79b))
    (fp_line (start -1 0.625) (end 1 0.625) (layer "B.Fab") (width 0.1) (tstamp adeabfe2-8424-4f10-8b69-526ca4f783e8))
    (pad "1" smd roundrect (at -1 0) (size 1.2 1.4) (layers "B.Cu" "B.Paste" "B.Mask") (roundrect_rratio 0.208333)
      (net 3 "Net-(C2-Pad1)") (pintype "passive") (tstamp cf1fdc8a-64ac-48fd-bdd0-591b3e87e42b))
    (pad "2" smd roundrect (at 1 0) (size 1.2 1.4) (layers "B.Cu" "B.Paste" "B.Mask") (roundrect_rratio 0.208333)
      (net 8 "Net-(R4-Pad2)") (pintype "passive") (tstamp 9fc28bab-887b-4cca-a872-67efaf08266f))
    (model "${KICAD6_3DMODEL_DIR}/Resistor_SMD.3dshapes/R_0805_2012Metric.wrl"
      (offset (xyz 0 0 0))
      (scale (xyz 1 1 1))
      (rotate (xyz 0 0 0))
    )
  )

  (footprint "Capacitor_SMD:C_0805_2012Metric_Pad1.18x1.45mm_HandSolder" (layer "B.Cu")
    (tedit 5F68FEEF) (tstamp ad369507-afc1-43bf-a836-7e866b414eb2)
    (at 123.257501 97.15 180)
    (descr "Capacitor SMD 0805 (2012 Metric), square (rectangular) end terminal, IPC_7351 nominal with elongated pad for handsoldering. (Body size source: IPC-SM-782 page 76, https://www.pcb-3d.com/wordpress/wp-content/uploads/ipc-sm-782a_amendment_1_and_2.pdf, https://docs.google.com/spreadsheets/d/1BsfQQcO9C6DZCsRaXUlFlo91Tg2WpOkGARC1WS5S8t0/edit?usp=sharing), generated with kicad-footprint-generator")
    (tags "capacitor handsolder")
    (property "DK" "1276-1066-1-ND")
    (property "Sheetfile" "File: blinkysub.kicad_sch")
    (property "Sheetname" "blinky1")
    (path "/ac245ba7-1670-4296-8389-e8db0649f797/f2700a18-628d-4fbb-8c86-3d591182004b")
    (attr smd)
    (fp_text reference "C2" (at -2.842499 0.35) (layer "B.SilkS")
      (effects (font (size 1 1) (thickness 0.15)) (justify mirror))
      (tstamp f9e151a3-244d-4c5e-80cb-e012ac4d2ac5)
    )
    (fp_text value "1uF" (at 0.4625 -0.199999) (layer "B.Fab")
      (effects (font (size 1 1) (thickness 0.15)) (justify mirror))
      (tstamp e4c6fd70-c21f-42a1-9e5d-44730d86a694)
    )
    (fp_text user "${REFERENCE}" (at 0 0) (layer "B.Fab")
      (effects (font (size 0.5 0.5) (thickness 0.08)) (justify mirror))
      (tstamp df099334-20a7-48a1-82a4-a5e531d2e023)
    )
    (fp_line (start -0.261252 0.735) (end 0.261252 0.735) (layer "B.SilkS") (width 0.12) (tstamp 3b792e01-4712-4de4-989f-568c37aca252))
    (fp_line (start -0.261252 -0.735) (end 0.261252 -0.735) (layer "B.SilkS") (width 0.12) (tstamp d8008d04-48f6-40b7-bb3b-14c5f194e6dd))
    (fp_line (start -1.88 -0.98) (end -1.88 0.98) (layer "B.CrtYd") (width 0.05) (tstamp 8a9559a1-712d-4b32-b9c7-6af3fc7345bd))
    (fp_line (start -1.88 0.98) (end 1.88 0.98) (layer "B.CrtYd") (width 0.05) (tstamp bc8cb86e-bd62-49a3-b33e-b574204f0b27))
    (fp_line (start 1.88 0.98) (end 1.88 -0.98) (layer "B.CrtYd") (width 0.05) (tstamp e494c60e-1b37-438d-8f00-1d18a2c59f37))
    (fp_line (start 1.88 -0.98) (end -1.88 -0.98) (layer "B.CrtYd") (width 0.05) (tstamp ee5d9180-8211-401a-9378-5d0c3fca4b03))
    (fp_line (start -1 -0.625) (end -1 0.625) (layer "B.Fab") (width 0.1) (tstamp 17e74036-1bba-441a-aeef-36f6699c4c27))
    (fp_line (start 1 -0.625) (end -1 -0.625) (layer "B.Fab") (width 0.1) (tstamp 5dacb8b0-34a3-41ba-8b61-bd2d32d488c4))
    (fp_line (start 1 0.625) (end 1 -0.625) (layer "B.Fab") (width 0.1) (tstamp 841d4257-ef31-4c3a-977c-62cd47763430))
    (fp_line (start -1 0.625) (end 1 0.625) (layer "B.Fab") (width 0.1) (tstamp ee3880aa-af36-4b81-9d33-3031fa4d7142))
    (pad "1" smd roundrect (at -1.0375 0 180) (size 1.175 1.45) (layers "B.Cu" "B.Paste" "B.Mask") (roundrect_rratio 0.212766)
      (net 3 "Net-(C2-Pad1)") (pintype "passive") (tstamp 0871d99c-ac7b-491f-b3ba-e391ad87edf1))
    (pad "2" smd roundrect (at 1.0375 0 180) (size 1.175 1.45) (layers "B.Cu" "B.Paste" "B.Mask") (roundrect_rratio 0.212766)
      (net 12 "/blinky1/gnd") (pintype "passive") (tstamp 7399f300-1dcc-4ba6-bb63-cda5403b2a3a))
    (model "${KICAD6_3DMODEL_DIR}/Capacitor_SMD.3dshapes/C_0805_2012Metric.wrl"
      (offset (xyz 0 0 0))
      (scale (xyz 1 1 1))
      (rotate (xyz 0 0 0))
    )
  )

  (footprint "digikey-footprints:SOIC-8_W3.9mm" (layer "B.Cu")
    (tedit 5D28A544) (tstamp d5727bc7-468c-49d6-a3b9-98e6fedd669b)
    (at 123.995001 103.15)
    (property "Category" "Integrated Circuits (ICs)")
    (property "DK" "296-6501-1-ND")
    (property "DK_Datasheet_Link" "http://www.ti.com/general/docs/suppproductinfo.tsp?distId=10&gotoUrl=http%3A%2F%2Fwww.ti.com%2Flit%2Fgpn%2Fne555")
    (property "DK_Detail_Page" "/product-detail/en/texas-instruments/NE555DR/296-6501-1-ND/372490")
    (property "Description" "IC OSC SGL TIMER 100KHZ 8-SOIC")
    (property "Digi-Key_PN" "296-6501-1-ND")
    (property "Family" "Clock/Timing - Programmable Timers and Oscillators")
    (property "MPN" "NE555DR")
    (property "Manufacturer" "Texas Instruments")
    (property "Sheetfile" "File: blinkysub.kicad_sch")
    (property "Sheetname" "blinky1")
    (property "Status" "Active")
    (path "/ac245ba7-1670-4296-8389-e8db0649f797/7ac9e3f6-f08a-48fb-b4a0-a84e7ef860c5")
    (attr smd)
    (fp_text reference "U2" (at 2.004999 -4.35) (layer "B.SilkS")
      (effects (font (size 1 1) (thickness 0.15)) (justify mirror))
      (tstamp 08afd1ce-619e-431d-8fa5-6f9fdd4237c1)
    )
    (fp_text value "NE555DR" (at -0.4 -0.2) (layer "B.Fab")
      (effects (font (size 1 1) (thickness 0.15)) (justify mirror))
      (tstamp b2e7b650-b932-456b-a233-6c27eaf6b41a)
    )
    (fp_text user "${REFERENCE}" (at 0 0) (layer "B.Fab")
      (effects (font (size 1 1) (thickness 0.15)) (justify mirror))
      (tstamp f1aa6bf6-5bd3-4339-a3b7-59fa54688a25)
    )
    (fp_line (start -2.6 -1.2) (end -2.6 -1.6) (layer "B.SilkS") (width 0.1) (tstamp 22f170e4-ce6e-42af-88dd-e28b8dc199d0))
    (fp_line (start 2.3 -2.1) (end 2.6 -2.1) (layer "B.SilkS") (width 0.1) (tstamp 4336d944-e0bc-4b58-9bc7-1bd22b2db136))
    (fp_line (start 2.3 2.1) (end 2.6 2.1) (layer "B.SilkS") (width 0.1) (tstamp 44a38d8e-ddaa-42cb-a56a-9f238b38e98f))
    (fp_line (start -2.6 2.1) (end -2.6 1.8) (layer "B.SilkS") (width 0.1) (tstamp 5e290301-52bc-4e49-a9a4-12a08a4b63ef))
    (fp_line (start 2.6 2.1) (end 2.6 1.8) (layer "B.SilkS") (width 0.1) (tstamp 6026020e-db38-44f1-adb6-15460087abce))
    (fp_line (start -2.6 -1.6) (end -2.3 -1.9) (layer "B.SilkS") (width 0.1) (tstamp 771e6449-95cf-4f8c-b5fa-5488edbc7aa5))
    (fp_line (start -2.3 2.1) (end -2.6 2.1) (layer "B.SilkS") (width 0.1) (tstamp 7f938b9e-3509-44a7-ba26-a573cec8ad41))
    (fp_line (start -2.3 -1.9) (end -2.3 -2.7) (layer "B.SilkS") (width 0.1) (tstamp e067fd28-f4a9-4b0d-a660-2b68d84ba182))
    (fp_line (start 2.6 -2.1) (end 2.6 -1.8) (layer "B.SilkS") (width 0.1) (tstamp e0b1c462-b8e3-4b15-be66-e5b20bf4cf06))
    (fp_line (start 2.7 3.7) (end 2.7 -3.7) (layer "B.CrtYd") (width 0.05) (tstamp 1a49270a-4a05-4615-bc18-a6a340f4bfa5))
    (fp_line (start -2.7 3.7) (end 2.7 3.7) (layer "B.CrtYd") (width 0.05) (tstamp 3204117c-edfd-4ad7-b716-eaa2ebba3bec))
    (fp_line (start -2.7 -3.7) (end 2.7 -3.7) (layer "B.CrtYd") (width 0.05) (tstamp 59711aa6-569d-4aad-90d8-7ea7aef152de))
    (fp_line (start -2.7 3.7) (end -2.7 -3.7) (layer "B.CrtYd") (width 0.05) (tstamp 9403e6f1-a192-45ba-9175-fba642aca7f6))
    (fp_line (start -2.45 1.95) (end 2.45 1.95) (layer "B.Fab") (width 0.1) (tstamp 42ed0d3a-b40d-4b2d-831d-8ded105bee95))
    (fp_line (start 2.45 1.95) (end 2.45 -1.95) (layer "B.Fab") (width 0.1) (tstamp 639d3da1-6e43-4652-b1e7-651a4afa08e3))
    (fp_line (start -2.45 -1.55) (end -2.45 1.95) (layer "B.Fab") (width 0.1) (tstamp 822d7fb7-4701-416e-877f-355d631b055c))
    (fp_line (start -2.05 -1.95) (end 2.45 -1.95) (layer "B.Fab") (width 0.1) (tstamp ae196c23-9e1b-4171-81d4-c056e4139fb4))
    (fp_line (start -2.45 -1.55) (end -2.05 -1.95) (layer "B.Fab") (width 0.1) (tstamp db78e34a-7eae-43ee-9e57-f78bbca90d0b))
    (pad "1" smd rect locked (at -1.905 -2.45) (size 0.6 2) (layers "B.Cu" "B.Paste" "B.Mask")
      (net 12 "/blinky1/gnd") (pinfunction "GND") (pintype "power_in") (tstamp 91f182ee-a176-429b-8c9f-3fecbefe1c29))
    (pad "2" smd rect locked (at -0.635 -2.45) (size 0.6 2) (layers "B.Cu" "B.Paste" "B.Mask")
      (net 3 "Net-(C2-Pad1)") (pinfunction "TRIG") (pintype "input") (tstamp eceac7ab-7eef-44f7-a62a-e6b5f56caf31))
    (pad "3" smd rect locked (at 0.635 -2.45) (size 0.6 2) (layers "B.Cu" "B.Paste" "B.Mask")
      (net 9 "Net-(R6-Pad1)") (pinfunction "OUT") (pintype "output") (tstamp 7bff9def-1890-4e6d-98f4-98a445d46b85))
    (pad "4" smd rect locked (at 1.905 -2.45) (size 0.6 2) (layers "B.Cu" "B.Paste" "B.Mask")
      (net 14 "/blinky1/vcc") (pinfunction "RESET") (pintype "input") (tstamp 18c4512f-b477-456f-916f-bea9e3755dc5))
    (pad "5" smd rect locked (at 1.905 2.45) (size 0.6 2) (layers "B.Cu" "B.Paste" "B.Mask")
      (net 10 "unconnected-(U2-Pad5)") (pinfunction "CONT") (pintype "bidirectional+no_connect") (tstamp 45ec6742-223d-4f34-9543-5d57aaf35005))
    (pad "6" smd rect locked (at 0.635 2.45) (size 0.6 2) (layers "B.Cu" "B.Paste" "B.Mask")
      (net 3 "Net-(C2-Pad1)") (pinfunction "THRES") (pintype "input") (tstamp a6777c12-f788-4a01-bd0e-9b95a66acecc))
    (pad "7" smd rect locked (at -0.635 2.45) (size 0.6 2) (layers "B.Cu" "B.Paste" "B.Mask")
      (net 8 "Net-(R4-Pad2)") (pinfunction "DISCH") (pintype "output") (tstamp e0bd88db-7bd5-4729-a880-956fbb91ac33))
    (pad "8" smd rect locked (at -1.905 2.45) (size 0.6 2) (layers "B.Cu" "B.Paste" "B.Mask")
      (net 14 "/blinky1/vcc") (pinfunction "VCC") (pintype "power_in") (tstamp 09b71b83-f4f9-45b4-b56a-88693f437437))
    (model "${KICAD6_3DMODEL_DIR}/Package_SO.3dshapes/SOIC-8-1EP_3.9x4.9mm_P1.27mm_EP2.35x2.35mm.step"
      (offset (xyz 0 0 0))
      (scale (xyz 1 1 1))
      (rotate (xyz 0 0 -90))
    )
  )

  (footprint "Resistor_SMD:R_0805_2012Metric_Pad1.20x1.40mm_HandSolder" (layer "B.Cu")
    (tedit 5F68FEEE) (tstamp e5b9c4dc-d6e5-4c1e-be8d-966d093223cd)
    (at 129.195 103.35)
    (descr "Resistor SMD 0805 (2012 Metric), square (rectangular) end terminal, IPC_7351 nominal with elongated pad for handsoldering. (Body size source: IPC-SM-782 page 72, https://www.pcb-3d.com/wordpress/wp-content/uploads/ipc-sm-782a_amendment_1_and_2.pdf), generated with kicad-footprint-generator")
    (tags "resistor handsolder")
    (property "DK" "2019-RK73H2ATTD3300FCT-ND")
    (property "Sheetfile" "File: blinkysub.kicad_sch")
    (property "Sheetname" "blinky1")
    (path "/ac245ba7-1670-4296-8389-e8db0649f797/78f28fa1-9414-420e-95fa-7f7970a8d447")
    (attr smd)
    (fp_text reference "R6" (at 3 -0.199999) (layer "B.SilkS")
      (effects (font (size 1 1) (thickness 0.15)) (justify mirror))
      (tstamp 71ad2f46-2d4c-4dc7-9604-0971df8288f3)
    )
    (fp_text value "330Ω" (at 0.2 -0.199999) (layer "B.Fab")
      (effects (font (size 1 1) (thickness 0.15)) (justify mirror))
      (tstamp aecd7661-966c-4bb0-8fed-1f4f4915731f)
    )
    (fp_text user "${REFERENCE}" (at 0 0) (layer "B.Fab")
      (effects (font (size 0.5 0.5) (thickness 0.08)) (justify mirror))
      (tstamp 825ef688-0610-472d-a103-2b5aae899b0f)
    )
    (fp_line (start -0.227064 0.735) (end 0.227064 0.735) (layer "B.SilkS") (width 0.12) (tstamp 2e2acd9c-b513-48ea-afca-91a15a370140))
    (fp_line (start -0.227064 -0.735) (end 0.227064 -0.735) (layer "B.SilkS") (width 0.12) (tstamp 353726ab-ad75-47ff-a65a-54dfdd9489c4))
    (fp_line (start -1.85 0.95) (end 1.85 0.95) (layer "B.CrtYd") (width 0.05) (tstamp 1eea27aa-d492-4fc0-9f74-4be7cd121a67))
    (fp_line (start -1.85 -0.95) (end -1.85 0.95) (layer "B.CrtYd") (width 0.05) (tstamp 42ff6515-2042-4f38-a976-f6139a423802))
    (fp_line (start 1.85 0.95) (end 1.85 -0.95) (layer "B.CrtYd") (width 0.05) (tstamp 56a64060-60d3-48df-896e-be5d28ee39d9))
    (fp_line (start 1.85 -0.95) (end -1.85 -0.95) (layer "B.CrtYd") (width 0.05) (tstamp 5922a2dc-2321-4db3-82b1-1725218c1e54))
    (fp_line (start 1 0.625) (end 1 -0.625) (layer "B.Fab") (width 0.1) (tstamp 2fd899de-7ac2-49b5-b195-a57f4f365881))
    (fp_line (start -1 0.625) (end 1 0.625) (layer "B.Fab") (width 0.1) (tstamp 32d820a6-ba5b-4723-babe-69a3f849ed1d))
    (fp_line (start 1 -0.625) (end -1 -0.625) (layer "B.Fab") (width 0.1) (tstamp 7715da8a-72c7-4243-a4eb-234c738abc28))
    (fp_line (start -1 -0.625) (end -1 0.625) (layer "B.Fab") (width 0.1) (tstamp fb36f5db-33b8-4b07-833d-19088e6fcfd3))
    (pad "1" smd roundrect (at -1 0) (size 1.2 1.4) (layers "B.Cu" "B.Paste" "B.Mask") (roundrect_rratio 0.208333)
      (net 9 "Net-(R6-Pad1)") (pintype "passive") (tstamp bb4d5df7-83b0-4359-836b-44e35e0350b3))
    (pad "2" smd roundrect (at 1 0) (size 1.2 1.4) (layers "B.Cu" "B.Paste" "B.Mask") (roundrect_rratio 0.208333)
      (net 7 "Net-(D2-Pad2)") (pintype "passive") (tstamp 91c58ebf-5e1f-4c86-9401-e69b92aaaa0d))
    (model "${KICAD6_3DMODEL_DIR}/Resistor_SMD.3dshapes/R_0805_2012Metric.wrl"
      (offset (xyz 0 0 0))
      (scale (xyz 1 1 1))
      (rotate (xyz 0 0 0))
    )
  )

  (gr_rect (start 115.2 93.2) (end 133.8 108.6) (layer "Edge.Cuts") (width 0.2) (fill none) (tstamp 706fd51a-96cc-438f-9392-dc68dc1852ab))
  (gr_text "+" (at 117.8 106.6) (layer "B.SilkS") (tstamp 215a85df-f635-4ca1-bdc3-368562dc8051)
    (effects (font (size 3 3) (thickness 0.6)))
  )
  (gr_text "-" (at 117.5 98) (layer "B.SilkS") (tstamp acfd5ce2-9952-4456-8ca4-150a38ffdeb2)
    (effects (font (size 3 3) (thickness 0.6)))
  )
  (gr_text "Dunwoody College" (at 124.2 94.6) (layer "B.SilkS") (tstamp c45a3e0d-2683-4ed3-93a5-dc445ae23065)
    (effects (font (size 1.2 1.2) (thickness 0.3)) (justify mirror))
  )
  (gr_text "-" (at 117.8 106.6) (layer "F.SilkS") (tstamp 1f0869a3-5558-4b5c-b0d9-c14164bcba59)
    (effects (font (size 3 3) (thickness 0.6)))
  )
  (gr_text "Dunwoody College" (at 124.2 94.6) (layer "F.SilkS") (tstamp bd80ec33-4d4b-4f8a-ae9c-18b93baf2576)
    (effects (font (size 1.2 1.2) (thickness 0.3)))
  )
  (gr_text "+" (at 117.5 98) (layer "F.SilkS") (tstamp c077c330-9393-4807-b149-c31798145645)
    (effects (font (size 3 3) (thickness 0.6)))
  )
  (gr_text "+" (at 117.5 98) (layer "F.Fab") (tstamp 3954de21-d2a4-44ec-a25a-aff54a43722f)
    (effects (font (size 3 3) (thickness 0.6)))
  )
  (gr_text "-" (at 117.8 106.6) (layer "F.Fab") (tstamp 9a0d88e3-62a0-4bbb-826a-865a9377f54b)
    (effects (font (size 3 3) (thickness 0.6)))
  )

  (segment (start 128.6 95.8) (end 125.2 95.8) (width 0.4) (layer "F.Cu") (net 1) (tstamp 13e6a231-84c5-4c15-a94e-f979b0dbf29a))
  (segment (start 123.365 105.065) (end 124.3 106) (width 0.4) (layer "F.Cu") (net 1) (tstamp 390cb861-8a3d-4b04-9d86-068d995b8ca8))
  (segment (start 128.2 102.6) (end 128.2 101.719239) (width 0.4) (layer "F.Cu") (net 1) (tstamp 3f24a07d-1c15-457b-bada-b81fe00887d6))
  (segment (start 125.680761 106) (end 124.3 106) (width 0.4) (layer "F.Cu") (net 1) (tstamp 521af6da-14f7-490e-89f3-00eff97cc70e))
  (segment (start 129.2 96.4) (end 128.6 95.8) (width 0.4) (layer "F.Cu") (net 1) (tstamp 6ff0fbf1-16bf-4485-ab43-c5228e2c08df))
  (segment (start 125.2 95.8) (end 124.635 96.365) (width 0.4) (layer "F.Cu") (net 1) (tstamp 744d31fc-be68-477a-ab8f-6ea98601fc31))
  (segment (start 123.365 102.45) (end 123.365 105.065) (width 0.4) (layer "F.Cu") (net 1) (tstamp 795b0abe-84c8-4aaf-b9fb-145d52851006))
  (segment (start 128.2 101.719239) (end 129.2 100.719239) (width 0.4) (layer "F.Cu") (net 1) (tstamp af3a6a67-3d71-4b34-8ac7-42501bfb06f9))
  (segment (start 129.2 100.719239) (end 129.2 96.4) (width 0.4) (layer "F.Cu") (net 1) (tstamp b17fce79-e96a-4a77-8b46-fec43d92a946))
  (segment (start 128.2 102.6) (end 128.2 103.480761) (width 0.4) (layer "F.Cu") (net 1) (tstamp cc4e047f-7109-4746-9368-87016cb3dbfc))
  (segment (start 124.635 96.365) (end 124.635 97.55) (width 0.4) (layer "F.Cu") (net 1) (tstamp e176d5b5-3e99-476e-adaf-ac3891d88dca))
  (segment (start 128.2 103.480761) (end 125.680761 106) (width 0.4) (layer "F.Cu") (net 1) (tstamp fc6f2ee4-1684-4ad6-96bb-917db217771c))
  (segment (start 129.2 104.4) (end 129.2 101.8) (width 0.4) (layer "F.Cu") (net 2) (tstamp 075e50f2-0b0f-4087-b246-f05d26f27129))
  (segment (start 128 105.6) (end 129.2 104.4) (width 0.4) (layer "F.Cu") (net 2) (tstamp 1d8f21ec-0db4-4884-bb33-5700baf4a4d2))
  (segment (start 130.2 100.8) (end 130.2 99.8) (width 0.4) (layer "F.Cu") (net 2) (tstamp 3406103a-7550-48e0-a4a9-8b3f28fd45b1))
  (segment (start 129.2 101.8) (end 130.2 100.8) (width 0.4) (layer "F.Cu") (net 2) (tstamp a6b0e1f8-9665-4029-9a92-cecf4b60d9c2))
  (segment (start 129.195 102.430761) (end 129.195 106.75) (width 0.4) (layer "B.Cu") (net 3) (tstamp 1bf5371d-0c1d-4a73-9cca-71d789735f59))
  (segment (start 125.195 107.35) (end 124.63 106.785) (width 0.4) (layer "B.Cu") (net 3) (tstamp 513ae5e2-4ed7-4f54-83aa-6694dc38e1b6))
  (segment (start 128.195 100.55) (end 128.195 101.430761) (width 0.4) (layer "B.Cu") (net 3) (tstamp 69ed11f6-4434-45e9-bb71-ab07d6af3325))
  (segment (start 128.195 100.55) (end 128.195 100.101472) (width 0.4) (layer "B.Cu") (net 3) (tstamp 6f33282c-bf9c-4f05-bca4-6b0079f9d8af))
  (segment (start 128.195 100.101472) (end 125.243528 97.15) (width 0.4) (layer "B.Cu") (net 3) (tstamp 708944ef-3975-4a7c-b923-47b2a1c8dc4e))
  (segment (start 123.36 98.085) (end 124.295 97.15) (width 0.4) (layer "B.Cu") (net 3) (tstamp 9574d6fc-805c-4563-8f31-7d2796db9e3f))
  (segment (start 128.595 107.35) (end 125.195 107.35) (width 0.4) (layer "B.Cu") (net 3) (tstamp 9f27c2ab-537c-48d0-a65d-6ee6bd617245))
  (segment (start 125.243528 97.15) (end 124.295001 97.15) (width 0.4) (layer "B.Cu") (net 3) (tstamp aae7e1fd-7c84-4be4-8d11-9dda2990fead))
  (segment (start 123.36 100.7) (end 123.36 98.085) (width 0.4) (layer "B.Cu") (net 3) (tstamp bb926647-3b98-4543-861c-da64f77fe711))
  (segment (start 128.195 101.430761) (end 129.195 102.430761) (width 0.4) (layer "B.Cu") (net 3) (tstamp cfd21787-1ac2-498c-8479-e0cc63b90dc7))
  (segment (start 129.195 106.75) (end 128.595 107.35) (width 0.4) (layer "B.Cu") (net 3) (tstamp f9580323-a0c7-477d-b6a1-b0cd10397e73))
  (segment (start 124.63 106.785) (end 124.63 105.6) (width 0.4) (layer "B.Cu") (net 3) (tstamp fbc02268-aeec-4c27-a2bf-e517bde913e1))
  (segment (start 130.2 96.551472) (end 128.848528 95.2) (width 0.4) (layer "F.Cu") (net 4) (tstamp 09d89c6f-bae4-4f96-a5ec-6f731079f80e))
  (segment (start 130.65 97.25) (end 130.2 97.25) (width 0.4) (layer "F.Cu") (net 4) (tstamp 50e7ea4f-c9aa-40c5-998b-75eff946b467))
  (segment (start 131.4 98) (end 130.65 97.25) (width 0.4) (layer "F.Cu") (net 4) (tstamp 5b086bb6-479d-4070-81a0-7e9ea2ad8d64))
  (segment (start 123.365 96.035) (end 123.365 97.55) (width 0.4) (layer "F.Cu") (net 4) (tstamp a3432680-1ff6-4813-910b-0c271584dd74))
  (segment (start 130.2 102.6) (end 131.4 101.4) (width 0.4) (layer "F.Cu") (net 4) (tstamp aeaf405d-36b8-48fb-b3a2-ca56352688cf))
  (segment (start 128.848528 95.2) (end 124.2 95.2) (width 0.4) (layer "F.Cu") (net 4) (tstamp bc53a13f-e352-46b7-8adb-2524f8e1673e))
  (segment (start 130.2 97.25) (end 130.2 96.551472) (width 0.4) (layer "F.Cu") (net 4) (tstamp caa7da53-58e9-4ecc-b644-4d1af9766785))
  (segment (start 124.2 95.2) (end 123.365 96.035) (width 0.4) (layer "F.Cu") (net 4) (tstamp cfda5b36-8e71-41be-96e2-207e96c8f938))
  (segment (start 131.4 101.4) (end 131.4 98) (width 0.4) (layer "F.Cu") (net 4) (tstamp f1cd76fd-27ac-434e-a0fc-8dce33f34b2c))
  (segment (start 124.635 103.28) (end 124.635 102.45) (width 0.4) (layer "F.Cu") (net 5) (tstamp 0c8582c0-3d9b-408d-82fd-87d68d2ce04b))
  (segment (start 128.2 99.8) (end 127 101) (width 0.4) (layer "F.Cu") (net 5) (tstamp 33ea51f9-1031-4e43-9d82-8a3e2de864cf))
  (segment (start 127 101) (end 127 103.4) (width 0.4) (layer "F.Cu") (net 5) (tstamp 6cdc88df-9791-4731-91b1-a9a410da191e))
  (segment (start 127 103.4) (end 126.4 104) (width 0.4) (layer "F.Cu") (net 5) (tstamp 80d676de-6bef-406f-af26-58e508797d20))
  (segment (start 126.4 104) (end 125.355 104) (width 0.4) (layer "F.Cu") (net 5) (tstamp 99d65c98-0b18-44e6-89dc-77b7ebecc434))
  (segment (start 125.355 104) (end 124.635 103.28) (width 0.4) (layer "F.Cu") (net 5) (tstamp a384c6d2-4974-4b77-a278-daf54cb8d9a7))
  (segment (start 129.195 101.35) (end 130.195 102.35) (width 0.4) (layer "B.Cu") (net 7) (tstamp 2c5c44d6-9d0d-4493-bc3b-341f073b604f))
  (segment (start 129.195 98.75) (end 129.195 101.35) (width 0.4) (layer "B.Cu") (net 7) (tstamp b5211e38-bbcd-4e0d-89c1-ceea4104b928))
  (segment (start 130.195 102.35) (end 130.195 103.35) (width 0.4) (layer "B.Cu") (net 7) (tstamp c31b71e0-80c9-4b34-b857-f5040f256572))
  (segment (start 127.995 97.55) (end 129.195 98.75) (width 0.4) (layer "B.Cu") (net 7) (tstamp d438a2f1-da95-46fb-b24a-347ae1e21179))
  (segment (start 124.195 107.95) (end 123.36 107.115) (width 0.4) (layer "B.Cu") (net 8) (tstamp 04fff646-2121-4a79-bac6-417705473f40))
  (segment (start 131.395 105.15) (end 130.645 105.9) (width 0.4) (layer "B.Cu") (net 8) (tstamp 0cf3255b-5780-45b9-94fe-4a7e0015eb3a))
  (segment (start 130.195 106.598528) (end 128.843528 107.95) (width 0.4) (layer "B.Cu") (net 8) (tstamp 1489c64c-0deb-4a54-a80d-aba921b70f28))
  (segment (start 131.395 101.75) (end 131.395 105.15) (width 0.4) (layer "B.Cu") (net 8) (tstamp 16604d85-6f20-4d0c-85c5-e84f54b818af))
  (segment (start 128.843528 107.95) (end 124.195 107.95) (width 0.4) (layer "B.Cu") (net 8) (tstamp 27f07c95-74ed-4d26-8d76-05320597da24))
  (segment (start 130.195 100.55) (end 131.395 101.75) (width 0.4) (layer "B.Cu") (net 8) (tstamp 4e883c59-d452-4919-932b-78dce88148b2))
  (segment (start 130.645 105.9) (end 130.195 105.9) (width 0.4) (layer "B.Cu") (net 8) (tstamp 71bea0a6-f669-4c7a-ad46-dfed1e317723))
  (segment (start 130.195 105.9) (end 130.195 106.598528) (width 0.4) (layer "B.Cu") (net 8) (tstamp d950325b-476f-4c73-bca8-07fd1946c480))
  (segment (start 123.36 107.115) (end 123.36 105.6) (width 0.4) (layer "B.Cu") (net 8) (tstamp dc2f8795-61d7-4b74-8df4-02e9398a6f4e))
  (segment (start 124.63 99.87) (end 124.63 100.7) (width 0.4) (layer "B.Cu") (net 9) (tstamp 429bfa8b-468e-44cb-a1e8-622c10e136ba))
  (segment (start 126.395 99.15) (end 125.35 99.15) (width 0.4) (layer "B.Cu") (net 9) (tstamp 5b337923-3abf-47ce-9b8e-b0403c95b0d0))
  (segment (start 126.995 102.15) (end 126.995 99.75) (width 0.4) (layer "B.Cu") (net 9) (tstamp 6454569c-250d-4101-a5c4-5856d092da92))
  (segment (start 128.195 103.35) (end 126.995 102.15) (width 0.4) (layer "B.Cu") (net 9) (tstamp b5c6a53e-fb2b-44cc-a03e-6fe514af2757))
  (segment (start 125.35 99.15) (end 124.63 99.87) (width 0.4) (layer "B.Cu") (net 9) (tstamp c497aa75-55c9-4645-abf9-988086554540))
  (segment (start 126.995 99.75) (end 126.395 99.15) (width 0.4) (layer "B.Cu") (net 9) (tstamp c80ce8cc-be73-40f3-a687-7463bb797549))
  (segment (start 122.225 106) (end 122.225 102.58) (width 0.4) (layer "F.Cu") (net 11) (tstamp 055ff1df-813a-42c7-ab08-6de3c70dd383))
  (segment (start 122.225 106) (end 119.025 106) (width 0.4) (layer "F.Cu") (net 11) (tstamp 18d2c96d-3564-455f-91f3-a5ded0ac8318))
  (segment (start 123 107.2) (end 122.225 106.425) (width 0.4) (layer "F.Cu") (net 11) (tstamp 37a23fc9-a323-4f37-b14a-1386b6f1491f))
  (segment (start 130.8 105.6) (end 129.2 107.2) (width 0.4) (layer "F.Cu") (net 11) (tstamp 67830405-7120-49cf-9dc7-579a6cc57dda))
  (segment (start 122.225 106.425) (end 122.225 106) (width 0.4) (layer "F.Cu") (net 11) (tstamp 72eff3a7-b4cb-4b93-a32f-a48b4018b28d))
  (segment (start 119.025 106) (end 117.5 104.475) (width 0.4) (layer "F.Cu") (net 11) (tstamp 8293ff87-79f7-46ee-87de-460fc73719dd))
  (segment (start 129.2 107.2) (end 123 107.2) (width 0.4) (layer "F.Cu") (net 11) (tstamp 8600491b-5509-4e1e-857c-3eb124450787))
  (segment (start 122.225 102.58) (end 122.095 102.45) (width 0.4) (layer "F.Cu") (net 11) (tstamp 9238a3a9-4f5d-421e-ac05-18fc2e61bf58))
  (via (at 117.5 104.475) (size 1) (drill 0.8) (layers "F.Cu" "B.Cu") (net 11) (tstamp 8f83d467-c91f-424c-837a-1b068d7eb5d2))
  (via (at 117.6 99.9) (size 1) (drill 0.8) (layers "F.Cu" "B.Cu") (net 12) (tstamp 747db502-8d9a-4bf3-8b8b-a258fdcc059d))
  (segment (start 118.52 99.7) (end 122.09 99.7) (width 0.4) (layer "B.Cu") (net 12) (tstamp 078308f7-86b8-43a9-96cc-1fb4ba1d51ef))
  (segment (start 130.795 97.55) (end 129.195 95.95) (width 0.4) (layer "B.Cu") (net 12) (tstamp 330f524c-cb8c-4c93-96b2-08be03b2acad))
  (segment (start 129.195 95.95) (end 122.995 95.95) (width 0.4) (layer "B.Cu") (net 12) (tstamp 3405d9c1-4b71-4709-8ad3-109016af3c9f))
  (segment (start 122.22 100.57) (end 122.09 100.7) (width 0.4) (layer "B.Cu") (net 12) (tstamp 5be283b9-06ed-43ac-935b-f5bdb9ee1a05))
  (segment (start 122.995 95.95) (end 122.22 96.725) (width 0.4) (layer "B.Cu") (net 12) (tstamp 6e9ab0cd-7564-4c9c-b935-04857d1f5555))
  (segment (start 122.22 97.15) (end 122.22 100.57) (width 0.4) (layer "B.Cu") (net 12) (tstamp 7bce46a0-89fd-4c4f-a8fe-30b25d7057f6))
  (segment (start 122.22 96.725) (end 122.22 97.15) (width 0.4) (layer "B.Cu") (net 12) (tstamp ea831c96-393a-468e-942d-bf275672a6c0))
  (segment (start 125.86962 99.8) (end 125.905 99.83538) (width 0.4) (layer "F.Cu") (net 13) (tstamp 3ba03242-7e95-4d2a-8179-2956575583b7))
  (segment (start 119.195 99.8) (end 117.495 101.5) (width 0.4) (layer "F.Cu") (net 13) (tstamp 43c5dcad-1c37-48d7-abc1-e469ef6c1de3))
  (segment (start 122.095 99.695) (end 122.2 99.8) (width 0.4) (layer "F.Cu") (net 13) (tstamp 5d92ab54-3831-4a7e-9822-006cc22fc861))
  (segment (start 123.4 99.8) (end 119.195 99.8) (width 0.4) (layer "F.Cu") (net 13) (tstamp 61bfa78b-c838-407f-a0ab-722c5e2aba3b))
  (segment (start 128.2 97.54038) (end 125.905 99.83538) (width 0.4) (layer "F.Cu") (net 13) (tstamp 7dc3b356-15a7-4ef8-b84f-b662642246bf))
  (segment (start 128.2 97.25) (end 128.2 97.54038) (width 0.4) (layer "F.Cu") (net 13) (tstamp 87a3e5f3-64e0-4ea5-bfdc-9c0cc451dd97))
  (segment (start 123.4 99.8) (end 125.86962 99.8) (width 0.4) (layer "F.Cu") (net 13) (tstamp 8bdbf5d5-4a7b-4e4e-b592-6e1f5f62e1c3))
  (segment (start 125.905 99.83538) (end 125.905 102.45) (width 0.4) (layer "F.Cu") (net 13) (tstamp af73bc3b-e804-4acb-8d70-02cd39d9c0c7))
  (segment (start 122.095 97.55) (end 122.095 99.695) (width 0.4) (layer "F.Cu") (net 13) (tstamp b6d1e14c-4ffb-4530-9adc-d9fc0979bc1b))
  (segment (start 122.2 99.8) (end 123.4 99.8) (width 0.4) (layer "F.Cu") (net 13) (tstamp eeefd20e-2b77-4ff0-9dff-82c2b45eeb2c))
  (via (at 117.495 101.5) (size 1) (drill 0.8) (layers "F.Cu" "B.Cu") (net 13) (tstamp a1412bac-c07b-4972-b4a5-c3dafdf05228))
  (via (at 117.5 102.9) (size 1) (drill 0.8) (layers "F.Cu" "B.Cu") (net 14) (tstamp cac2ea62-466a-4582-bfad-414db9d5aff1))
  (segment (start 122.195 103.35) (end 123.395 103.35) (width 0.4) (layer "B.Cu") (net 14) (tstamp 13cde880-3ad8-45a9-ac03-4632fcc3c868))
  (segment (start 122.09 105.6) (end 122.09 103.455) (width 0.4) (layer "B.Cu") (net 14) (tstamp 380ebc29-545c-4d1b-b4b5-296974edcd3a))
  (segment (start 118.075 103.35) (end 123.395 103.35) (width 0.4) (layer "B.Cu") (net 14) (tstamp 5208613f-ca63-4693-87dd-5bafa5e7bf75))
  (segment (start 123.395 103.35) (end 125.86462 103.35) (width 0.4) (layer "B.Cu") (net 14) (tstamp 5ccfa0d6-3bc3-4b13-ba46-5bf780039cf4))
  (segment (start 122.09 103.455) (end 122.195 103.35) (width 0.4) (layer "B.Cu") (net 14) (tstamp 6bf516f9-0a2e-4ba2-b916-34c3708267cd))
  (segment (start 117.6 102.875) (end 118.075 103.35) (width 0.4) (layer "B.Cu") (net 14) (tstamp 91c0ee09-9517-4a9d-a703-58cca71367d2))
  (segment (start 125.86462 103.35) (end 125.9 103.31462) (width 0.4) (layer "B.Cu") (net 14) (tstamp 982ba859-1746-4172-9eec-027a9a3dbc5b))
  (segment (start 128.195 105.60962) (end 125.9 103.31462) (width 0.4) (layer "B.Cu") (net 14) (tstamp ee496408-2b5f-4d51-8e4c-698e61ed1a26))
  (segment (start 125.9 103.31462) (end 125.9 100.7) (width 0.4) (layer "B.Cu") (net 14) (tstamp f4f026d1-e900-40d8-b00e-a3b4850ef8f4))
  (segment (start 128.195 105.9) (end 128.195 105.60962) (width 0.4) (layer "B.Cu") (net 14) (tstamp fc801a93-ee7f-42af-a3ac-d5868ce7c70a))

)
